EESchema Schematic File Version 2
LIBS:power
LIBS:device
LIBS:transistors
LIBS:conn
LIBS:linear
LIBS:regul
LIBS:74xx
LIBS:cmos4000
LIBS:adc-dac
LIBS:memory
LIBS:xilinx
LIBS:special
LIBS:microcontrollers
LIBS:dsp
LIBS:microchip
LIBS:analog_switches
LIBS:motorola
LIBS:texas
LIBS:intel
LIBS:audio
LIBS:interface
LIBS:digital-audio
LIBS:philips
LIBS:display
LIBS:cypress
LIBS:siliconi
LIBS:opto
LIBS:atmel
LIBS:contrib
LIBS:valves
LIBS:tsop
LIBS:hetii
LIBS:usb_a_plug
LIBS:hidsender-cache
EELAYER 24 0
EELAYER END
$Descr A4 11693 8268
encoding utf-8
Sheet 1 1
Title ""
Date ""
Rev ""
Comp ""
Comment1 ""
Comment2 ""
Comment3 ""
Comment4 ""
$EndDescr
$Comp
L ATMEGA8-P IC1
U 1 1 557EFDD1
P 2425 2575
F 0 "IC1" H 1675 3875 40  0000 L BNN
F 1 "ATMEGA8-P" H 2925 1125 40  0000 L BNN
F 2 "Sockets_DIP:DIP-28__300_ELL" H 2425 2575 30  0000 C CIN
F 3 "" H 2425 2575 60  0000 C CNN
	1    2425 2575
	1    0    0    -1  
$EndComp
$Comp
L R R1
U 1 1 557EFF17
P 1525 1075
F 0 "R1" V 1605 1075 40  0000 C CNN
F 1 "4k7" V 1532 1076 40  0000 C CNN
F 2 "Resistors_SMD:R_1206_HandSoldering" V 1455 1075 30  0001 C CNN
F 3 "" H 1525 1075 30  0000 C CNN
	1    1525 1075
	1    0    0    -1  
$EndComp
$Comp
L CRYSTAL X1
U 1 1 557F00D3
P 1250 2275
F 0 "X1" H 1250 2425 60  0000 C CNN
F 1 "12MHz" H 1250 2125 60  0000 C CNN
F 2 "Crystals:Crystal_HC49-U_Vertical" H 1250 2275 60  0001 C CNN
F 3 "" H 1250 2275 60  0000 C CNN
	1    1250 2275
	0    1    1    0   
$EndComp
$Comp
L C C4
U 1 1 557F0170
P 950 1975
F 0 "C4" V 1000 2025 40  0000 L CNN
F 1 "22pF" V 900 2025 40  0000 L CNN
F 2 "Capacitors_SMD:C_0603_HandSoldering" H 988 1825 30  0001 C CNN
F 3 "" H 950 1975 60  0000 C CNN
	1    950  1975
	0    1    1    0   
$EndComp
$Comp
L C C5
U 1 1 557F02CD
P 950 2575
F 0 "C5" V 1000 2625 40  0000 L CNN
F 1 "22pF" V 900 2625 40  0000 L CNN
F 2 "Capacitors_SMD:C_0603_HandSoldering" H 988 2425 30  0001 C CNN
F 3 "" H 950 2575 60  0000 C CNN
	1    950  2575
	0    1    1    0   
$EndComp
$Comp
L GND #PWR01
U 1 1 557F043F
P 750 2775
F 0 "#PWR01" H 750 2775 30  0001 C CNN
F 1 "GND" H 750 2705 30  0001 C CNN
F 2 "" H 750 2775 60  0000 C CNN
F 3 "" H 750 2775 60  0000 C CNN
	1    750  2775
	1    0    0    -1  
$EndComp
$Comp
L GND #PWR02
U 1 1 557F05B3
P 2425 4175
F 0 "#PWR02" H 2425 4175 30  0001 C CNN
F 1 "GND" H 2425 4105 30  0001 C CNN
F 2 "" H 2425 4175 60  0000 C CNN
F 3 "" H 2425 4175 60  0000 C CNN
	1    2425 4175
	1    0    0    -1  
$EndComp
$Comp
L CONN_02X05 P1
U 1 1 557F0D3C
P 4075 1575
F 0 "P1" H 4075 1875 50  0000 C CNN
F 1 "ISP" H 4075 1275 50  0000 C CNN
F 2 "Pin_Headers:Pin_Header_Straight_2x05" H 4075 375 60  0001 C CNN
F 3 "" H 4075 375 60  0000 C CNN
	1    4075 1575
	1    0    0    1   
$EndComp
$Comp
L C C3
U 1 1 557F1409
P 950 1775
F 0 "C3" V 1000 1825 40  0000 L CNN
F 1 "100nF" V 900 1825 40  0000 L CNN
F 2 "Capacitors_SMD:C_1206_HandSoldering" H 988 1625 30  0001 C CNN
F 3 "" H 950 1775 60  0000 C CNN
	1    950  1775
	0    1    1    0   
$EndComp
$Comp
L INDUCTOR_SMALL L1
U 1 1 557F1719
P 1325 1075
F 0 "L1" H 1325 1175 50  0000 C CNN
F 1 "22uH" H 1325 1025 50  0000 C CNN
F 2 "Resistors_ThroughHole:Resistor_Horizontal_RM15mm" H 1325 1075 60  0001 C CNN
F 3 "" H 1325 1075 60  0000 C CNN
	1    1325 1075
	0    -1   -1   0   
$EndComp
$Comp
L C C2
U 1 1 557F1888
P 950 1575
F 0 "C2" V 1000 1625 40  0000 L CNN
F 1 "100nF" V 900 1625 40  0000 L CNN
F 2 "Capacitors_SMD:C_1206_HandSoldering" H 988 1425 30  0001 C CNN
F 3 "" H 950 1575 60  0000 C CNN
	1    950  1575
	0    1    1    0   
$EndComp
$Comp
L C C1
U 1 1 557F238B
P 950 825
F 0 "C1" V 1000 875 40  0000 L CNN
F 1 "100nF" V 900 875 40  0000 L CNN
F 2 "Capacitors_SMD:C_1206_HandSoldering" H 988 675 30  0001 C CNN
F 3 "" H 950 825 60  0000 C CNN
	1    950  825 
	0    1    1    0   
$EndComp
Text Label 3650 2875 2    39   ~ 0
RXD
Text Label 3650 2975 2    39   ~ 0
TXD
Text Label 4550 1475 2    39   ~ 0
GND
Text Label 4550 1575 2    39   ~ 0
RXD
Text Label 4550 1675 2    39   ~ 0
TXD
Text Label 4550 1775 2    39   ~ 0
+5V
Text Label 2425 825  2    39   ~ 0
+5V
$Comp
L TSOP1736 ??1
U 1 1 557F3C71
P 4775 1050
F 0 "??1" H 4525 775 39  0000 C CNN
F 1 "TSOP1736" H 4725 1375 39  0000 C CNN
F 2 "Pin_Headers:Pin_Header_Straight_1x04" H 4775 1050 39  0001 C CNN
F 3 "" H 4775 1050 39  0000 C CNN
	1    4775 1050
	-1   0    0    1   
$EndComp
$Comp
L R R2
U 1 1 557F4464
P 3300 825
F 0 "R2" V 3380 825 40  0000 C CNN
F 1 "100" V 3307 826 40  0000 C CNN
F 2 "Resistors_SMD:R_1206_HandSoldering" V 3230 825 30  0001 C CNN
F 3 "" H 3300 825 30  0000 C CNN
	1    3300 825 
	0    1    1    0   
$EndComp
Text Label 4125 900  0    39   ~ 0
IR_RX
$Comp
L CAPAPOL C6
U 1 1 557F52EC
P 3750 1025
F 0 "C6" H 3800 1125 40  0000 L CNN
F 1 "10uF" H 3800 925 40  0000 L CNN
F 2 "Capacitors_Elko_ThroughHole:Elko_vert_11x5mm_RM2.5" H 3850 875 30  0001 C CNN
F 3 "" H 3750 1025 300 0000 C CNN
	1    3750 1025
	1    0    0    -1  
$EndComp
NoConn ~ 3825 1675
Text Label 4550 1975 2    39   ~ 0
IR_RX
$Comp
L R R3
U 1 1 557F6640
P 4025 3075
F 0 "R3" V 3950 3075 40  0000 C CNN
F 1 "68" V 4032 3076 40  0000 C CNN
F 2 "Resistors_SMD:R_1206_HandSoldering" V 3955 3075 30  0001 C CNN
F 3 "" H 4025 3075 30  0000 C CNN
	1    4025 3075
	0    1    1    0   
$EndComp
$Comp
L R R4
U 1 1 557F6983
P 4025 3275
F 0 "R4" V 3950 3275 40  0000 C CNN
F 1 "68" V 4032 3276 40  0000 C CNN
F 2 "Resistors_SMD:R_1206_HandSoldering" V 3955 3275 30  0001 C CNN
F 3 "" H 4025 3275 30  0000 C CNN
	1    4025 3275
	0    1    1    0   
$EndComp
$Comp
L R R5
U 1 1 557F78FB
P 4875 3100
F 0 "R5" V 4950 3000 40  0000 C CNN
F 1 "2k2" V 4882 3101 40  0000 C CNN
F 2 "Resistors_SMD:R_1206_HandSoldering" V 4805 3100 30  0001 C CNN
F 3 "" H 4875 3100 30  0000 C CNN
	1    4875 3100
	-1   0    0    1   
$EndComp
$Comp
L ZENER D1
U 1 1 557F7EC6
P 4525 3750
F 0 "D1" H 4400 3800 50  0000 C CNN
F 1 "3v6" H 4675 3800 40  0000 C CNN
F 2 "Diodes_SMD:Diode-MiniMELF_Handsoldering" H 4525 3750 60  0001 C CNN
F 3 "" H 4525 3750 60  0000 C CNN
	1    4525 3750
	0    -1   -1   0   
$EndComp
$Comp
L ZENER D2
U 1 1 557F7FAD
P 4725 3750
F 0 "D2" H 4600 3800 50  0000 C CNN
F 1 "3v6" H 4875 3775 40  0000 C CNN
F 2 "Diodes_SMD:Diode-MiniMELF_Handsoldering" H 4725 3750 60  0001 C CNN
F 3 "" H 4725 3750 60  0000 C CNN
	1    4725 3750
	0    -1   -1   0   
$EndComp
$Comp
L GND #PWR03
U 1 1 557F82A2
P 4525 4175
F 0 "#PWR03" H 4525 4175 30  0001 C CNN
F 1 "GND" H 4525 4105 30  0001 C CNN
F 2 "" H 4525 4175 39  0000 C CNN
F 3 "" H 4525 4175 39  0000 C CNN
	1    4525 4175
	1    0    0    -1  
$EndComp
$Comp
L VCC #PWR04
U 1 1 557F8913
P 2425 725
F 0 "#PWR04" H 2425 825 30  0001 C CNN
F 1 "VCC" H 2425 825 30  0000 C CNN
F 2 "" H 2425 725 39  0000 C CNN
F 3 "" H 2425 725 39  0000 C CNN
	1    2425 725 
	1    0    0    -1  
$EndComp
$Comp
L CONN_01X04 P2
U 1 1 557F8CE0
P 4575 2625
F 0 "P2" H 4575 2875 50  0000 C CNN
F 1 "USB_HID" V 4675 2625 50  0000 C CNN
F 2 "Pin_Headers:Pin_Header_Straight_1x04" H 4575 2625 60  0001 C CNN
F 3 "" H 4575 2625 60  0000 C CNN
	1    4575 2625
	0    -1   -1   0   
$EndComp
$Comp
L GND #PWR05
U 1 1 557FADD6
P 4425 3000
F 0 "#PWR05" H 4425 3000 30  0001 C CNN
F 1 "GND" H 4425 2930 30  0001 C CNN
F 2 "" H 4425 3000 39  0000 C CNN
F 3 "" H 4425 3000 39  0000 C CNN
	1    4425 3000
	1    0    0    -1  
$EndComp
$Comp
L VCC #PWR06
U 1 1 557FAEB2
P 4875 2675
F 0 "#PWR06" H 4875 2775 30  0001 C CNN
F 1 "VCC" H 4875 2775 30  0000 C CNN
F 2 "" H 4875 2675 39  0000 C CNN
F 3 "" H 4875 2675 39  0000 C CNN
	1    4875 2675
	1    0    0    -1  
$EndComp
NoConn ~ 3425 2675
NoConn ~ 3425 2575
NoConn ~ 3425 2475
NoConn ~ 3425 2375
NoConn ~ 3425 2275
NoConn ~ 3425 2175
$Comp
L PWR_FLAG #FLG07
U 1 1 557FC10A
P 2225 775
F 0 "#FLG07" H 2225 870 30  0001 C CNN
F 1 "PWR_FLAG" H 2225 955 30  0000 C CNN
F 2 "" H 2225 775 39  0000 C CNN
F 3 "" H 2225 775 39  0000 C CNN
	1    2225 775 
	1    0    0    -1  
$EndComp
$Comp
L PWR_FLAG #FLG08
U 1 1 557FC33F
P 750 775
F 0 "#FLG08" H 750 870 30  0001 C CNN
F 1 "PWR_FLAG" H 750 955 30  0000 C CNN
F 2 "" H 750 775 39  0000 C CNN
F 3 "" H 750 775 39  0000 C CNN
	1    750  775 
	1    0    0    -1  
$EndComp
$Comp
L PWR_FLAG #FLG09
U 1 1 557FCF90
P 975 1325
F 0 "#FLG09" H 975 1420 30  0001 C CNN
F 1 "PWR_FLAG" H 975 1505 30  0000 C CNN
F 2 "" H 975 1325 39  0000 C CNN
F 3 "" H 975 1325 39  0000 C CNN
	1    975  1325
	1    0    0    -1  
$EndComp
$Comp
L USB_A_PLUG CON1
U 1 1 55806A80
P 10450 1300
F 0 "CON1" H 10200 1750 60  0000 C CNN
F 1 "USB_A_PLUG" H 10450 900 60  0000 C CNN
F 2 "Connect:USB_A" H 10450 1300 60  0001 C CNN
F 3 "" H 10450 1300 60  0000 C CNN
	1    10450 1300
	1    0    0    -1  
$EndComp
$Comp
L USB_A_PLUG CON2
U 1 1 5580700C
P 10450 2650
F 0 "CON2" H 10200 3100 60  0000 C CNN
F 1 "USB_A_PLUG" H 10450 2250 60  0000 C CNN
F 2 "Connect:USB_A" H 10450 2650 60  0001 C CNN
F 3 "" H 10450 2650 60  0000 C CNN
	1    10450 2650
	1    0    0    -1  
$EndComp
$Comp
L USB_A_PLUG CON3
U 1 1 558072C3
P 10450 4100
F 0 "CON3" H 10200 4550 60  0000 C CNN
F 1 "USB_A_PLUG" H 10450 3700 60  0000 C CNN
F 2 "Connect:USB_A" H 10450 4100 60  0001 C CNN
F 3 "" H 10450 4100 60  0000 C CNN
	1    10450 4100
	1    0    0    -1  
$EndComp
$Comp
L GND #PWR010
U 1 1 55807E75
P 11000 4500
F 0 "#PWR010" H 11000 4500 30  0001 C CNN
F 1 "GND" H 11000 4430 30  0001 C CNN
F 2 "" H 11000 4500 60  0000 C CNN
F 3 "" H 11000 4500 60  0000 C CNN
	1    11000 4500
	1    0    0    -1  
$EndComp
$Comp
L GND #PWR011
U 1 1 558080A5
P 9850 1700
F 0 "#PWR011" H 9850 1700 30  0001 C CNN
F 1 "GND" H 9850 1630 30  0001 C CNN
F 2 "" H 9850 1700 60  0000 C CNN
F 3 "" H 9850 1700 60  0000 C CNN
	1    9850 1700
	1    0    0    -1  
$EndComp
$Comp
L GND #PWR012
U 1 1 558081F9
P 9850 3050
F 0 "#PWR012" H 9850 3050 30  0001 C CNN
F 1 "GND" H 9850 2980 30  0001 C CNN
F 2 "" H 9850 3050 60  0000 C CNN
F 3 "" H 9850 3050 60  0000 C CNN
	1    9850 3050
	1    0    0    -1  
$EndComp
$Comp
L GND #PWR013
U 1 1 55808338
P 9850 4500
F 0 "#PWR013" H 9850 4500 30  0001 C CNN
F 1 "GND" H 9850 4430 30  0001 C CNN
F 2 "" H 9850 4500 60  0000 C CNN
F 3 "" H 9850 4500 60  0000 C CNN
	1    9850 4500
	1    0    0    -1  
$EndComp
$Comp
L CONN_01X04 P3
U 1 1 5580890A
P 9525 1700
F 0 "P3" H 9525 1950 50  0000 C CNN
F 1 "USB_IN_1" V 9625 1700 50  0000 C CNN
F 2 "Pin_Headers:Pin_Header_Straight_1x04" H 9525 1700 60  0001 C CNN
F 3 "" H 9525 1700 60  0000 C CNN
	1    9525 1700
	0    1    1    0   
$EndComp
$Comp
L CONN_01X04 P4
U 1 1 558098B8
P 9525 3050
F 0 "P4" H 9525 3300 50  0000 C CNN
F 1 "USB_IN_2" V 9625 3050 50  0000 C CNN
F 2 "Pin_Headers:Pin_Header_Straight_1x04" H 9525 3050 60  0001 C CNN
F 3 "" H 9525 3050 60  0000 C CNN
	1    9525 3050
	0    1    1    0   
$EndComp
$Comp
L CONN_01X04 P5
U 1 1 5580A123
P 9525 4500
F 0 "P5" H 9525 4750 50  0000 C CNN
F 1 "USB_IN_3" V 9625 4500 50  0000 C CNN
F 2 "Pin_Headers:Pin_Header_Straight_1x04" H 9525 4500 60  0001 C CNN
F 3 "" H 9525 4500 60  0000 C CNN
	1    9525 4500
	0    1    1    0   
$EndComp
Text Label 3625 3575 2    39   ~ 0
PUSB_1
Text Label 3625 1575 2    39   ~ 0
PUSB_2
$Comp
L DIODESCH D3
U 1 1 5580E319
P 9375 1250
F 0 "D3" H 9375 1350 40  0000 C CNN
F 1 "DIODESCH" H 9375 1425 40  0000 C CNN
F 2 "Diodes_ThroughHole:Diode_DO-35_SOD27_Horizontal_RM10" H 9375 1250 60  0001 C CNN
F 3 "" H 9375 1250 60  0000 C CNN
	1    9375 1250
	0    -1   -1   0   
$EndComp
$Comp
L DIODESCH D4
U 1 1 5580EA4D
P 9375 2600
F 0 "D4" H 9375 2700 40  0000 C CNN
F 1 "DIODESCH" H 9375 2775 40  0000 C CNN
F 2 "Diodes_ThroughHole:Diode_DO-35_SOD27_Horizontal_RM10" H 9375 2600 60  0001 C CNN
F 3 "" H 9375 2600 60  0000 C CNN
	1    9375 2600
	0    -1   -1   0   
$EndComp
$Comp
L DIODESCH D5
U 1 1 5580ED66
P 9375 4050
F 0 "D5" H 9375 4150 40  0000 C CNN
F 1 "DIODESCH" H 9375 4225 40  0000 C CNN
F 2 "Diodes_ThroughHole:Diode_DO-35_SOD27_Horizontal_RM10" H 9375 4050 60  0001 C CNN
F 3 "" H 9375 4050 60  0000 C CNN
	1    9375 4050
	0    -1   -1   0   
$EndComp
$Comp
L VCC #PWR014
U 1 1 5580F055
P 9375 1000
F 0 "#PWR014" H 9375 1100 30  0001 C CNN
F 1 "VCC" H 9375 1100 30  0000 C CNN
F 2 "" H 9375 1000 60  0000 C CNN
F 3 "" H 9375 1000 60  0000 C CNN
	1    9375 1000
	1    0    0    -1  
$EndComp
$Comp
L VCC #PWR015
U 1 1 5580F149
P 9375 2350
F 0 "#PWR015" H 9375 2450 30  0001 C CNN
F 1 "VCC" H 9375 2450 30  0000 C CNN
F 2 "" H 9375 2350 60  0000 C CNN
F 3 "" H 9375 2350 60  0000 C CNN
	1    9375 2350
	1    0    0    -1  
$EndComp
$Comp
L VCC #PWR016
U 1 1 5580F291
P 9375 3800
F 0 "#PWR016" H 9375 3900 30  0001 C CNN
F 1 "VCC" H 9375 3900 30  0000 C CNN
F 2 "" H 9375 3800 60  0000 C CNN
F 3 "" H 9375 3800 60  0000 C CNN
	1    9375 3800
	1    0    0    -1  
$EndComp
Text Label 4625 2825 3    39   ~ 0
HID_M
Text Label 4525 2825 3    39   ~ 0
HID_P
$Comp
L A5W-K K1
U 1 1 5581D4A4
P 8425 1100
F 0 "K1" H 8375 1500 70  0000 C CNN
F 1 "A5W-K" H 8575 600 70  0000 C CNN
F 2 "Sockets_DIP:DIP-10__300_ELL" H 8425 1100 60  0001 C CNN
F 3 "" H 8425 1100 60  0000 C CNN
	1    8425 1100
	1    0    0    -1  
$EndComp
$Comp
L A5W-K K2
U 1 1 5581D590
P 8425 2525
F 0 "K2" H 8375 2925 70  0000 C CNN
F 1 "A5W-K" H 8575 2025 70  0000 C CNN
F 2 "Sockets_DIP:DIP-10__300_ELL" H 8425 2525 60  0001 C CNN
F 3 "" H 8425 2525 60  0000 C CNN
	1    8425 2525
	1    0    0    -1  
$EndComp
$Comp
L A5W-K K3
U 1 1 5581DE19
P 8425 4125
F 0 "K3" H 8375 4525 70  0000 C CNN
F 1 "A5W-K" H 8575 3625 70  0000 C CNN
F 2 "Sockets_DIP:DIP-10__300_ELL" H 8425 4125 60  0001 C CNN
F 3 "" H 8425 4125 60  0000 C CNN
	1    8425 4125
	1    0    0    -1  
$EndComp
$Comp
L VCC #PWR017
U 1 1 558212A8
P 8025 775
F 0 "#PWR017" H 8025 875 30  0001 C CNN
F 1 "VCC" H 8025 875 30  0000 C CNN
F 2 "" H 8025 775 60  0000 C CNN
F 3 "" H 8025 775 60  0000 C CNN
	1    8025 775 
	1    0    0    -1  
$EndComp
$Comp
L VCC #PWR018
U 1 1 5582146E
P 8025 2200
F 0 "#PWR018" H 8025 2300 30  0001 C CNN
F 1 "VCC" H 8025 2300 30  0000 C CNN
F 2 "" H 8025 2200 60  0000 C CNN
F 3 "" H 8025 2200 60  0000 C CNN
	1    8025 2200
	1    0    0    -1  
$EndComp
$Comp
L VCC #PWR019
U 1 1 558215F6
P 8025 3800
F 0 "#PWR019" H 8025 3900 30  0001 C CNN
F 1 "VCC" H 8025 3900 30  0000 C CNN
F 2 "" H 8025 3800 60  0000 C CNN
F 3 "" H 8025 3800 60  0000 C CNN
	1    8025 3800
	1    0    0    -1  
$EndComp
$Comp
L NPN Q1
U 1 1 55822220
P 7425 1650
F 0 "Q1" H 7425 1500 50  0000 R CNN
F 1 "NPN" H 7425 1800 50  0000 R CNN
F 2 "Housings_TO-92:TO-92_Inline_Wide" H 7425 1650 60  0001 C CNN
F 3 "" H 7425 1650 60  0000 C CNN
	1    7425 1650
	1    0    0    -1  
$EndComp
$Comp
L NPN Q2
U 1 1 55822419
P 7425 3075
F 0 "Q2" H 7425 2925 50  0000 R CNN
F 1 "NPN" H 7425 3225 50  0000 R CNN
F 2 "Housings_TO-92:TO-92_Inline_Wide" H 7425 3075 60  0001 C CNN
F 3 "" H 7425 3075 60  0000 C CNN
	1    7425 3075
	1    0    0    -1  
$EndComp
$Comp
L NPN Q3
U 1 1 5582273E
P 7425 4675
F 0 "Q3" H 7425 4525 50  0000 R CNN
F 1 "NPN" H 7425 4825 50  0000 R CNN
F 2 "Housings_TO-92:TO-92_Inline_Wide" H 7425 4675 60  0001 C CNN
F 3 "" H 7425 4675 60  0000 C CNN
	1    7425 4675
	1    0    0    -1  
$EndComp
$Comp
L GND #PWR020
U 1 1 558239B3
P 7525 1925
F 0 "#PWR020" H 7525 1925 30  0001 C CNN
F 1 "GND" H 7525 1855 30  0001 C CNN
F 2 "" H 7525 1925 60  0000 C CNN
F 3 "" H 7525 1925 60  0000 C CNN
	1    7525 1925
	1    0    0    -1  
$EndComp
$Comp
L GND #PWR021
U 1 1 55823AD7
P 7525 3350
F 0 "#PWR021" H 7525 3350 30  0001 C CNN
F 1 "GND" H 7525 3280 30  0001 C CNN
F 2 "" H 7525 3350 60  0000 C CNN
F 3 "" H 7525 3350 60  0000 C CNN
	1    7525 3350
	1    0    0    -1  
$EndComp
$Comp
L GND #PWR022
U 1 1 55823E5F
P 7525 4950
F 0 "#PWR022" H 7525 4950 30  0001 C CNN
F 1 "GND" H 7525 4880 30  0001 C CNN
F 2 "" H 7525 4950 60  0000 C CNN
F 3 "" H 7525 4950 60  0000 C CNN
	1    7525 4950
	1    0    0    -1  
$EndComp
$Comp
L R R6
U 1 1 5582455C
P 6900 1650
F 0 "R6" V 6980 1650 40  0000 C CNN
F 1 "1K" V 6907 1651 40  0000 C CNN
F 2 "Resistors_SMD:R_1206_HandSoldering" V 6830 1650 30  0001 C CNN
F 3 "" H 6900 1650 30  0000 C CNN
	1    6900 1650
	0    1    1    0   
$EndComp
$Comp
L R R7
U 1 1 558249C8
P 6900 3075
F 0 "R7" V 6980 3075 40  0000 C CNN
F 1 "1K" V 6907 3076 40  0000 C CNN
F 2 "Resistors_SMD:R_1206_HandSoldering" V 6830 3075 30  0001 C CNN
F 3 "" H 6900 3075 30  0000 C CNN
	1    6900 3075
	0    1    1    0   
$EndComp
$Comp
L R R8
U 1 1 55824B57
P 6900 4675
F 0 "R8" V 6980 4675 40  0000 C CNN
F 1 "1K" V 6907 4676 40  0000 C CNN
F 2 "Resistors_SMD:R_1206_HandSoldering" V 6830 4675 30  0001 C CNN
F 3 "" H 6900 4675 30  0000 C CNN
	1    6900 4675
	0    1    1    0   
$EndComp
Text Label 3625 1475 2    39   ~ 0
PUSB_0
Text Label 6425 4675 0    39   ~ 0
PUSB_0
Text Label 6425 3075 0    39   ~ 0
PUSB_1
Text Label 6400 1650 0    39   ~ 0
PUSB_2
NoConn ~ 3425 1675
Wire Wire Line
	1525 1325 1525 1475
Wire Wire Line
	2425 725  2425 1175
Wire Wire Line
	1150 1975 1525 1975
Wire Wire Line
	1525 1975 1525 2175
Wire Wire Line
	1150 2575 1525 2575
Wire Wire Line
	1525 2575 1525 2375
Connection ~ 1250 1975
Connection ~ 1250 2575
Wire Wire Line
	750  775  750  2775
Connection ~ 750  2575
Wire Wire Line
	1525 1875 750  1875
Connection ~ 750  1975
Wire Wire Line
	2425 4175 2425 4075
Wire Wire Line
	3425 1775 3825 1775
Connection ~ 2425 825 
Connection ~ 750  1875
Wire Wire Line
	1150 1775 1525 1775
Connection ~ 750  1775
Wire Wire Line
	1325 1675 1525 1675
Wire Wire Line
	1325 1325 1325 1675
Connection ~ 1525 825 
Wire Wire Line
	1150 1575 1325 1575
Connection ~ 1325 1575
Connection ~ 750  1575
Connection ~ 1325 825 
Wire Wire Line
	3425 2875 3650 2875
Wire Wire Line
	3425 2975 3650 2975
Wire Wire Line
	4325 1675 4550 1675
Wire Wire Line
	4325 1575 4550 1575
Wire Wire Line
	4325 1775 4550 1775
Wire Wire Line
	3050 825  1150 825 
Wire Wire Line
	4125 900  4475 900 
Connection ~ 3750 825 
Wire Wire Line
	3825 1475 3775 1475
Wire Wire Line
	3775 1475 3775 1975
Wire Wire Line
	3425 1975 4550 1975
Wire Wire Line
	3825 1375 3725 1375
Wire Wire Line
	3725 1375 3725 1875
Wire Wire Line
	3725 1875 3425 1875
Wire Wire Line
	3825 1575 3675 1575
Wire Wire Line
	1625 1125 3675 1125
Wire Wire Line
	3675 1125 3675 1575
Wire Wire Line
	4325 1475 4550 1475
Wire Wire Line
	1625 1125 1625 1325
Wire Wire Line
	1625 1325 1525 1325
Connection ~ 3775 1975
Wire Wire Line
	3425 3075 3775 3075
Wire Wire Line
	3425 3275 3775 3275
Wire Wire Line
	4275 3075 4525 3075
Wire Wire Line
	4525 2825 4525 3550
Connection ~ 4525 3075
Wire Wire Line
	4425 2825 4425 3000
Wire Wire Line
	4875 2675 4875 2850
Wire Wire Line
	4275 3275 4725 3275
Wire Wire Line
	2225 775  2225 825 
Connection ~ 2225 825 
Connection ~ 750  825 
Wire Wire Line
	975  1325 1325 1325
Wire Wire Line
	3750 1225 4475 1225
Wire Wire Line
	4325 1225 4325 1475
Connection ~ 4325 1375
Wire Wire Line
	4875 2850 4725 2850
Wire Wire Line
	4725 2850 4725 2825
Wire Wire Line
	4725 3275 4725 3550
Wire Wire Line
	4625 2825 4625 3275
Connection ~ 4625 3275
Connection ~ 11000 1500
Connection ~ 11000 2850
Connection ~ 11000 3850
Connection ~ 11000 4300
Wire Wire Line
	9850 1500 9850 1700
Wire Wire Line
	9850 2850 9850 3050
Wire Wire Line
	9850 4300 9850 4500
Wire Wire Line
	9675 1500 9850 1500
Wire Wire Line
	9575 1500 9575 1350
Wire Wire Line
	9575 1350 9850 1350
Wire Wire Line
	9475 1500 9475 1200
Wire Wire Line
	9475 1200 9850 1200
Wire Wire Line
	9675 2850 9850 2850
Wire Wire Line
	9575 2850 9575 2700
Wire Wire Line
	9575 2700 9850 2700
Wire Wire Line
	9475 2850 9475 2550
Wire Wire Line
	9475 2550 9850 2550
Wire Wire Line
	9675 4300 9850 4300
Wire Wire Line
	9575 4300 9575 4150
Wire Wire Line
	9575 4150 9850 4150
Wire Wire Line
	9475 4300 9475 4000
Wire Wire Line
	9475 4000 9850 4000
Connection ~ 11000 2400
Wire Wire Line
	3425 3575 3625 3575
Wire Wire Line
	3425 1575 3625 1575
Wire Wire Line
	9375 1450 9375 1500
Wire Wire Line
	9375 4250 9375 4300
Wire Wire Line
	9375 3800 9375 3850
Wire Wire Line
	9375 2800 9375 2850
Wire Wire Line
	9375 1000 9375 1050
Wire Wire Line
	9375 2350 9375 2400
Wire Wire Line
	8025 775  8025 1350
Wire Wire Line
	8825 950  8900 950 
Wire Wire Line
	8825 2375 8900 2375
Wire Wire Line
	8825 3975 8900 3975
Wire Wire Line
	8025 2200 8025 2775
Wire Wire Line
	8025 3800 8025 4375
Wire Wire Line
	8900 2225 9850 2225
Wire Wire Line
	9850 2225 9850 2400
Wire Wire Line
	8900 3675 9850 3675
Wire Wire Line
	9850 3675 9850 3850
Connection ~ 8025 1150
Connection ~ 8025 2575
Connection ~ 8025 4175
Connection ~ 8025 3875
Connection ~ 8025 2275
Connection ~ 8025 850 
Wire Wire Line
	7425 2875 8025 2875
Wire Wire Line
	7425 4475 8025 4475
Wire Wire Line
	7525 4875 7525 4950
Wire Wire Line
	7525 3275 7525 3350
Wire Wire Line
	7525 1850 7525 1925
Wire Wire Line
	7150 4675 7225 4675
Wire Wire Line
	7150 3075 7225 3075
Wire Wire Line
	7150 1650 7225 1650
Wire Wire Line
	3425 1475 3625 1475
Wire Wire Line
	6650 4675 6425 4675
Wire Wire Line
	6650 3075 6425 3075
Wire Wire Line
	6650 1650 6400 1650
Wire Wire Line
	8900 1250 8825 1250
Wire Wire Line
	8900 850  8900 1250
Wire Wire Line
	8900 850  9850 850 
Wire Wire Line
	9850 850  9850 1050
Connection ~ 8900 950 
Wire Wire Line
	8900 2675 8825 2675
Wire Wire Line
	8900 2225 8900 2675
Connection ~ 8900 2375
Wire Wire Line
	8900 4275 8825 4275
Wire Wire Line
	8900 3675 8900 4275
Connection ~ 8900 3975
$Comp
L DIODE D6
U 1 1 55820C1C
P 7875 1250
F 0 "D6" H 7875 1350 40  0000 C CNN
F 1 "1n4148" H 7875 1150 40  0000 C CNN
F 2 "Discret:D3" H 7875 1250 60  0001 C CNN
F 3 "" H 7875 1250 60  0000 C CNN
	1    7875 1250
	0    -1   -1   0   
$EndComp
Wire Wire Line
	7875 1050 8025 1050
Connection ~ 8025 1050
$Comp
L DIODE D7
U 1 1 55820DF9
P 7875 2675
F 0 "D7" H 7875 2775 40  0000 C CNN
F 1 "1n4148" H 7875 2575 40  0000 C CNN
F 2 "Discret:D3" H 7875 2675 60  0001 C CNN
F 3 "" H 7875 2675 60  0000 C CNN
	1    7875 2675
	0    -1   -1   0   
$EndComp
Wire Wire Line
	7875 2475 8025 2475
Connection ~ 8025 2475
$Comp
L DIODE D8
U 1 1 558210C8
P 7875 4275
F 0 "D8" H 7875 4375 40  0000 C CNN
F 1 "1n4148" H 7875 4175 40  0000 C CNN
F 2 "Discret:D3" H 7875 4275 60  0001 C CNN
F 3 "" H 7875 4275 60  0000 C CNN
	1    7875 4275
	0    -1   -1   0   
$EndComp
Wire Wire Line
	7875 4075 8025 4075
Connection ~ 8025 4075
NoConn ~ 8825 750 
NoConn ~ 8825 1050
NoConn ~ 8825 2175
NoConn ~ 8825 2475
NoConn ~ 8825 3775
NoConn ~ 8825 4075
Wire Wire Line
	3550 825  4000 825 
Wire Wire Line
	4000 825  4000 1100
Wire Wire Line
	4000 1100 4475 1100
Connection ~ 4325 1225
Connection ~ 7875 1450
Connection ~ 7875 2875
Connection ~ 7875 4475
$Comp
L R R9
U 1 1 55824C49
P 4025 3475
F 0 "R9" V 4105 3475 40  0000 C CNN
F 1 "220" V 4032 3476 40  0000 C CNN
F 2 "Resistors_SMD:R_1206_HandSoldering" V 3955 3475 30  0001 C CNN
F 3 "" H 4025 3475 30  0000 C CNN
	1    4025 3475
	0    1    1    0   
$EndComp
Wire Wire Line
	3425 3475 3775 3475
$Comp
L LED D9
U 1 1 55824E56
P 4275 3750
F 0 "D9" H 4275 3850 50  0000 C CNN
F 1 "LED" H 4275 3650 50  0000 C CNN
F 2 "LEDs:LED-5MM" H 4275 3750 60  0001 C CNN
F 3 "" H 4275 3750 60  0000 C CNN
	1    4275 3750
	0    -1   -1   0   
$EndComp
Wire Wire Line
	4275 3475 4275 3550
Wire Wire Line
	4175 3950 4725 3950
Connection ~ 4525 3950
Wire Wire Line
	4525 3950 4525 4175
Wire Wire Line
	4875 3350 4725 3350
Connection ~ 4725 3350
Connection ~ 4275 3950
Wire Wire Line
	3425 3375 3725 3375
Wire Wire Line
	3725 3375 3725 3700
Wire Wire Line
	3725 3700 3525 3700
$Comp
L LED D10
U 1 1 558276FB
P 3925 650
F 0 "D10" H 3925 750 50  0000 C CNN
F 1 "LED" H 3925 550 50  0000 C CNN
F 2 "LEDs:LED-5MM" H 3925 650 60  0001 C CNN
F 3 "" H 3925 650 60  0000 C CNN
	1    3925 650 
	1    0    0    -1  
$EndComp
$Comp
L R R10
U 1 1 558279B2
P 3300 650
F 0 "R10" V 3380 650 40  0000 C CNN
F 1 "220" V 3307 651 40  0000 C CNN
F 2 "Resistors_SMD:R_1206_HandSoldering" V 3230 650 30  0001 C CNN
F 3 "" H 3300 650 30  0000 C CNN
	1    3300 650 
	0    1    1    0   
$EndComp
Wire Wire Line
	3050 500  3050 825 
Wire Wire Line
	3550 650  3725 650 
Wire Wire Line
	4125 900  4125 650 
$Comp
L SW_SWITCH SW1
U 1 1 55829796
P 3875 3850
F 0 "SW1" H 4025 3960 50  0000 C CNN
F 1 "SW_SWITCH" H 3875 3675 50  0000 C CNN
F 2 "Sockets_DIP:DIP-6__300_ELL" H 3875 3850 60  0001 C CNN
F 3 "" H 3875 3850 60  0000 C CNN
	1    3875 3850
	1    0    0    -1  
$EndComp
Wire Wire Line
	3525 3700 3525 3950
Wire Wire Line
	3525 3950 3575 3950
NoConn ~ 3575 3850
Wire Wire Line
	4175 3850 4175 3950
Wire Wire Line
	3425 3175 3650 3175
Text Label 3650 3175 2    39   ~ 0
IR_TX
$Comp
L LED D11
U 1 1 5582BA7C
P 6225 650
F 0 "D11" H 6225 750 50  0000 C CNN
F 1 "INFARED" H 6225 550 50  0000 C CNN
F 2 "LEDs:LED-5MM" H 6225 650 60  0001 C CNN
F 3 "" H 6225 650 60  0000 C CNN
	1    6225 650 
	1    0    0    1   
$EndComp
$Comp
L NPN Q4
U 1 1 5582BB39
P 6325 1000
F 0 "Q4" H 6325 850 50  0000 R CNN
F 1 "NPN" H 6325 1150 50  0000 R CNN
F 2 "Housings_TO-92:TO-92_Inline_Wide" H 6325 1000 60  0001 C CNN
F 3 "" H 6325 1000 60  0000 C CNN
	1    6325 1000
	1    0    0    -1  
$EndComp
$Comp
L GND #PWR023
U 1 1 5582CD6C
P 6425 1275
F 0 "#PWR023" H 6425 1275 30  0001 C CNN
F 1 "GND" H 6425 1205 30  0001 C CNN
F 2 "" H 6425 1275 60  0000 C CNN
F 3 "" H 6425 1275 60  0000 C CNN
	1    6425 1275
	1    0    0    -1  
$EndComp
Wire Wire Line
	6425 1200 6425 1275
Wire Wire Line
	6425 650  6425 800 
$Comp
L R R11
U 1 1 5582CFC2
P 5700 650
F 0 "R11" V 5780 650 40  0000 C CNN
F 1 "33" V 5707 651 40  0000 C CNN
F 2 "Resistors_SMD:R_1206_HandSoldering" V 5630 650 30  0001 C CNN
F 3 "" H 5700 650 30  0000 C CNN
	1    5700 650 
	0    1    1    0   
$EndComp
Wire Wire Line
	5950 650  6025 650 
Wire Wire Line
	5450 500  5450 650 
Wire Wire Line
	5450 500  3050 500 
Connection ~ 3050 650 
$Comp
L R R12
U 1 1 5582D8FB
P 5800 1000
F 0 "R12" V 5880 1000 40  0000 C CNN
F 1 "1k" V 5807 1001 40  0000 C CNN
F 2 "Resistors_SMD:R_1206_HandSoldering" V 5730 1000 30  0001 C CNN
F 3 "" H 5800 1000 30  0000 C CNN
	1    5800 1000
	0    1    1    0   
$EndComp
Wire Wire Line
	6050 1000 6125 1000
Wire Wire Line
	5300 1000 5550 1000
Text Label 5300 1000 0    39   ~ 0
IR_TX
$Comp
L R R13
U 1 1 55830D4D
P 9000 1575
F 0 "R13" V 9080 1575 40  0000 C CNN
F 1 "220" V 9007 1576 40  0000 C CNN
F 2 "Resistors_SMD:R_1206_HandSoldering" V 8930 1575 30  0001 C CNN
F 3 "" H 9000 1575 30  0000 C CNN
	1    9000 1575
	-1   0    0    1   
$EndComp
$Comp
L LED D12
U 1 1 55830DDE
P 9000 1050
F 0 "D12" H 9000 1150 50  0000 C CNN
F 1 "LED" H 9000 950 50  0000 C CNN
F 2 "LEDs:LED-3MM" H 9000 1050 60  0001 C CNN
F 3 "" H 9000 1050 60  0000 C CNN
	1    9000 1050
	0    1    1    0   
$EndComp
Wire Wire Line
	8775 1575 8775 1675
$Comp
L LED D13
U 1 1 5583234A
P 9000 2425
F 0 "D13" H 9000 2525 50  0000 C CNN
F 1 "LED" H 9000 2325 50  0000 C CNN
F 2 "LEDs:LED-3MM" H 9000 2425 60  0001 C CNN
F 3 "" H 9000 2425 60  0000 C CNN
	1    9000 2425
	0    1    1    0   
$EndComp
$Comp
L LED D14
U 1 1 55832ABE
P 9000 3875
F 0 "D14" H 9000 3975 50  0000 C CNN
F 1 "LED" H 9000 3775 50  0000 C CNN
F 2 "LEDs:LED-3MM" H 9000 3875 60  0001 C CNN
F 3 "" H 9000 3875 60  0000 C CNN
	1    9000 3875
	0    1    1    0   
$EndComp
$Comp
L R R15
U 1 1 55832E86
P 9000 4400
F 0 "R15" V 9080 4400 40  0000 C CNN
F 1 "220" V 9007 4401 40  0000 C CNN
F 2 "Resistors_SMD:R_1206_HandSoldering" V 8930 4400 30  0001 C CNN
F 3 "" H 9000 4400 30  0000 C CNN
	1    9000 4400
	-1   0    0    1   
$EndComp
$Comp
L R R14
U 1 1 558330C3
P 9000 2950
F 0 "R14" V 9080 2950 40  0000 C CNN
F 1 "220" V 9007 2951 40  0000 C CNN
F 2 "Resistors_SMD:R_1206_HandSoldering" V 8930 2950 30  0001 C CNN
F 3 "" H 9000 2950 30  0000 C CNN
	1    9000 2950
	-1   0    0    1   
$EndComp
Wire Wire Line
	7425 1450 8025 1450
Wire Wire Line
	11000 1050 11000 4500
$Comp
L PWR_FLAG #FLG024
U 1 1 55837ACF
P 7425 2875
F 0 "#FLG024" H 7425 2970 30  0001 C CNN
F 1 "PWR_FLAG" H 7425 3055 30  0000 C CNN
F 2 "" H 7425 2875 60  0000 C CNN
F 3 "" H 7425 2875 60  0000 C CNN
	1    7425 2875
	1    0    0    -1  
$EndComp
Connection ~ 7525 2875
$Comp
L PWR_FLAG #FLG025
U 1 1 55838829
P 7425 4475
F 0 "#FLG025" H 7425 4570 30  0001 C CNN
F 1 "PWR_FLAG" H 7425 4655 30  0000 C CNN
F 2 "" H 7425 4475 60  0000 C CNN
F 3 "" H 7425 4475 60  0000 C CNN
	1    7425 4475
	1    0    0    -1  
$EndComp
Connection ~ 7525 4475
$Comp
L PWR_FLAG #FLG026
U 1 1 55838C9F
P 7425 1450
F 0 "#FLG026" H 7425 1545 30  0001 C CNN
F 1 "PWR_FLAG" H 7425 1630 30  0000 C CNN
F 2 "" H 7425 1450 60  0000 C CNN
F 3 "" H 7425 1450 60  0000 C CNN
	1    7425 1450
	1    0    0    -1  
$EndComp
Connection ~ 7525 1450
$Comp
L GND #PWR027
U 1 1 5583A8C6
P 9000 1900
F 0 "#PWR027" H 9000 1900 30  0001 C CNN
F 1 "GND" H 9000 1830 30  0001 C CNN
F 2 "" H 9000 1900 60  0000 C CNN
F 3 "" H 9000 1900 60  0000 C CNN
	1    9000 1900
	1    0    0    -1  
$EndComp
Wire Wire Line
	9000 1825 9000 1900
Wire Wire Line
	9000 1250 9000 1325
Connection ~ 9000 850 
Wire Wire Line
	9000 2625 9000 2700
Wire Wire Line
	9000 4075 9000 4150
$Comp
L GND #PWR028
U 1 1 5583CB07
P 9000 4725
F 0 "#PWR028" H 9000 4725 30  0001 C CNN
F 1 "GND" H 9000 4655 30  0001 C CNN
F 2 "" H 9000 4725 60  0000 C CNN
F 3 "" H 9000 4725 60  0000 C CNN
	1    9000 4725
	1    0    0    -1  
$EndComp
$Comp
L GND #PWR029
U 1 1 5583CE54
P 9000 3275
F 0 "#PWR029" H 9000 3275 30  0001 C CNN
F 1 "GND" H 9000 3205 30  0001 C CNN
F 2 "" H 9000 3275 60  0000 C CNN
F 3 "" H 9000 3275 60  0000 C CNN
	1    9000 3275
	1    0    0    -1  
$EndComp
Wire Wire Line
	9000 3200 9000 3275
Wire Wire Line
	9000 4650 9000 4725
Connection ~ 9000 3675
Connection ~ 9000 2225
$EndSCHEMATC
